…
# Charger le paquet historydata
library(historydata)
```

Ce paquet contient un échantillon de données historiques sur les États-Unis. Les données de recensement que nous avons utilisées précédemment font partie de cet échantillon. Jusqu'à la fin de ce tutoriel, nous allons surtout travailler avec un jeu de données en particulier&nbsp;: `early_colleges`, qui contient des données sur les universités (&laquo;&nbsp;colleges&nbsp;&raquo; dans le monde anglophone) fondées avant 1848. Commençons par charger les données et les observer&nbsp;:

```
# Vérifiez avant d'exécuter ce code que le paquet historydata a bien été installé et chargé

data(early_colleges)
early_colleges

## # A tibble: 65 × 6
##    college                original_name         city          state established sponsorship
##    <chr>                  <chr>                 <chr>         <chr>       <int> <chr>      
##  1 Harvard                <NA>                  Cambridge     MA           1636 Congregational; after 1805 Unitarian
##  2 William and Mary       <NA>                  Williamsburg  VA           1693 Anglican   
##  3 Yale                   <NA>                  New Haven     CT           1701 Congregational
##  4 Pennsylvania, Univ. of <NA>                  Philadelphia  PA           1740 Nondenominational
##  5 Princeton              College of New Jersey Princeton     NJ           1746 Presbyterian
##  6 Columbia               King's College        New York      NY           1754 Anglican   
##  7 Brown                  <NA>                  Providence    RI           1765 Baptist    
##  8 Rutgers                Queen's College       New Brunswick NJ           1766 Dutch Reformed
##  9 Dartmouth              <NA>                  Hanover       NH           1769 Congregational
## 10 Charleston, Coll. Of   <NA>                  Charleston    SC           1770 Anglican   
## # ... with 55 more rows
```

Comme vous pouvez le remarquer, ce jeu de données contient le nom actuel de chaque université, son nom à l'origine, la ville et l'État dans lequel il a été fondé, la date de sa fondation et l'organisation qui le parraine. Comme on l'a vu plus haut, avant de commencer à travailler sur ce jeu de données, il est important de penser à la façon dont on va organiser ces données. Voyons si certaines de nos données ne se trouveraient pas dans un format «&nbsp;impropre&nbsp;». Voyez-vous des cellules qui ne répondraient pas aux trois critères que remplissent les données «&nbsp;propres&nbsp;»&nbsp;?

Si vous avez répondu le parrainage de Harvard, vous avez la bonne réponse. En plus de mentionner le premier parrainage de cette université, la cellule comporte l'information de son changement de parrainage en 1805. Habituellement, on veut conserver dans nos données autant d'information que possible, mais pour rester dans la perspective de ce tutoriel, nous allons modifier la colonne pour ne conserver que les parrainages lors de la fondation.

```
early_colleges[1,6] <- "Congregational"
early_colleges

## # A tibble: 65 × 6
##    college                original_name         city          state established sponsorship
##    <chr>                  <chr>                 <chr>         <chr>       <int> <chr>      
##  1 Harvard                <NA>                  Cambridge     MA           1636 Congregational
##  2 William and Mary       <NA>                  Williamsburg  VA           1693 Anglican   
##  3 Yale                   <NA>                  New Haven     CT           1701 Congregational
##  4 Pennsylvania, Univ. of <NA>                  Philadelphia  PA           1740 Nondenominational
##  5 Princeton              College of New Jersey Princeton     NJ           1746 Presbyterian
##  6 Columbia               King's College        New York      NY           1754 Anglican   
##  7 Brown                  <NA>                  Providence    RI           1765 Baptist    
##  8 Rutgers                Queen's College       New Brunswick NJ           1766 Dutch Reformed
##  9 Dartmouth              <NA>                  Hanover       NH           1769 Congregational
## 10 Charleston, Coll. Of   <NA>                  Charleston    SC           1770 Anglican   
## # ... with 55 more rows
```
…
Comparé au langage R de base, utiliser dplyr est souvent plus rapide et vous garantit que si les données en entrée sont propres, les données transformées le seront aussi. Ce qui est peut-être encore plus important, dplyr facilite la lecture de votre code et utilise des &laquo;&nbsp;verbes&nbsp;&raquo; qui sont intuitifs la plupart du temps. Chaque fonction dans dplyr correspond à l'un de ces verbes, dont les plus importants sont : filtrer(`filter`), sélectionner(`select`), arranger(`arrange`), recoder(`mutate`) et résumer(`summarise`, avec le *s* de l'orthographe britannique). Parcourons-les un à un pour voir comment ils fonctionnent dans la pratique.

### select

Si on regarde les données comprises dans `early_colleges`, on peut observer qu'il y a un grand nombre de &laquo;&nbsp;NA&nbsp;&raquo; dans la colonne des noms originaux. NA (Not Available) signifie qu’on n’a aucune donnée correspondante. On pourrait donc vouloir visualiser nos données en soustrayant cette colonne. La fonction `select()` de dplyr nous donne la possibilité de le faire. Nous prenons le tableau de données que nous voulons manipuler comme premier argument, suivi d'une liste qui indique quelles colonnes on souhaite conserver&nbsp;:

```
# Supprime la colonne des noms originaux en utiliser select()
# Notez que vous n'avez pas à préfixer le nom de la colonne par un $
# dplyr traite automatiquement la virgule comme un AND

select(early_colleges, college, city, state, established, sponsorship)

## # A tibble: 65 × 5
##    college                city          state established sponsorship      
##    <chr>                  <chr>         <chr>       <int> <chr>            
##  1 Harvard                Cambridge     MA           1636 Congregational   
##  2 William and Mary       Williamsburg  VA           1693 Anglican         
##  3 Yale                   New Haven     CT           1701 Congregational   
##  4 Pennsylvania, Univ. of Philadelphia  PA           1740 Nondenominational
##  5 Princeton              Princeton     NJ           1746 Presbyterian     
##  6 Columbia               New York      NY           1754 Anglican         
##  7 Brown                  Providence    RI           1765 Baptist          
##  8 Rutgers                New Brunswick NJ           1766 Dutch Reformed   
##  9 Dartmouth              Hanover       NH           1769 Congregational   
## 10 Charleston, Coll. Of   Charleston    SC           1770 Anglican         
## # ℹ 55 more rows
```

Allons encore plus loin et voyons comment on peut écrire ceci en utilisant l'opérateur pipe (%>%)&nbsp;:

```
early_colleges%>%
    select(college, city, state, established, sponsorship)

## # A tibble: 65 × 5
##    college                city          state established sponsorship      
##    <chr>                  <chr>         <chr>       <int> <chr>            
##  1 Harvard                Cambridge     MA           1636 Congregational   
##  2 William and Mary       Williamsburg  VA           1693 Anglican         
##  3 Yale                   New Haven     CT           1701 Congregational   
##  4 Pennsylvania, Univ. of Philadelphia  PA           1740 Nondenominational
##  5 Princeton              Princeton     NJ           1746 Presbyterian     
##  6 Columbia               New York      NY           1754 Anglican         
##  7 Brown                  Providence    RI           1765 Baptist          
##  8 Rutgers                New Brunswick NJ           1766 Dutch Reformed   
##  9 Dartmouth              Hanover       NH           1769 Congregational   
## 10 Charleston, Coll. Of   Charleston    SC           1770 Anglican         
## # ℹ 55 more rows
```

Devoir référencer toutes les colonnes qu'on veut conserver juste pour se débarrasser d'une seule est un peu fastidieux. Nous pouvons à la place utiliser le symbole moins (`-`) pour signifier que nous voulons enlever une colonne.

```
early_colleges%>%
  select(-original_name)

## # A tibble: 65 × 5
##    college                city          state established sponsorship      
##    <chr>                  <chr>         <chr>       <int> <chr>            
##  1 Harvard                Cambridge     MA           1636 Congregational   
##  2 William and Mary       Williamsburg  VA           1693 Anglican         
##  3 Yale                   New Haven     CT           1701 Congregational   
##  4 Pennsylvania, Univ. of Philadelphia  PA           1740 Nondenominational
##  5 Princeton              Princeton     NJ           1746 Presbyterian     
##  6 Columbia               New York      NY           1754 Anglican         
##  7 Brown                  Providence    RI           1765 Baptist          
##  8 Rutgers                New Brunswick NJ           1766 Dutch Reformed   
##  9 Dartmouth              Hanover       NH           1769 Congregational   
## 10 Charleston, Coll. Of   Charleston    SC           1770 Anglican         
## # ℹ 55 more rows
```
…
### mutate

La commande mutate vous permet d’ajouter une colonne à votre tableau de données. Ici nous avons la ville et l'État qui se trouvent dans deux colonnes séparées. Nous pouvons utiliser la commande `paste` (coller) pour combiner ces deux chaînes de caractères en une seule tout en gardant un séparateur. Plaçons ces deux informations dans une seule et même colonne intitulée **location** (localisation).

```
early_colleges%>%mutate(location=paste(city,state,sep=","))

## # A tibble: 65 × 7
##    college                  original_name         city          state established sponsorship       location
##    <chr>                    <chr>                 <chr>         <chr>       <int> <chr>             <chr>   
##  1 Harvard                  <NA>                  Cambridge     MA           1636 Congregational    Cambridge,MA
##  2 William and Mary         <NA>                  Williamsburg  VA           1693 Anglican          Williamsburg,VA
##  3 Yale                     <NA>                  New Haven     CT           1701 Congregational    New Haven,CT
##  4 Pennsylvania, Univ. of   <NA>                  Philadelphia  PA           1740 Nondenominational Philadelphia,PA
##  5 Princeton                College of New Jersey Princeton     NJ           1746 Presbyterian      Princeton,NJ
##  6 Columbia                 King's College        New York      NY           1754 Anglican          New York,NY
##  7 Brown                    <NA>                  Providence    RI           1765 Baptist           Providence,RI
##  8 Rutgers                  Queen's College       New Brunswick  NJ           1766 Dutch Reformed    New Brunswick,NJ
##  9 Dartmouth                <NA>                  Hanover       NH           1769 Congregational    Hanover,NH
## 10 Charleston, Coll. Of     <NA>                  Charleston    SC           1770 Anglican          Charleston,SC
## # ... with 55 more rows

```

Rappelez-vous que dplyr ne conserve pas les données ni ne transforme le document original. À la place, il crée un tableau de données temporaire à chaque étape. Si vous souhaitez le conserver, vous devez lui associer une variable permanente.

```
early_colleges_with_location <- early_colleges%>%mutate(location=paste(city,state, sep=","))

# Voir le nouveau tableau avec la colonne "location" ajoutée
early_colleges_with_location

## # A tibble: 65 × 7
##    college                  original_name         city          state established sponsorship       location
##    <chr>                    <chr>                 <chr>         <chr>       <int> <chr>             <chr>   
##  1 Harvard                  <NA>                  Cambridge     MA           1636 Congregational    Cambridge,MA
##  2 William and Mary         <NA>                  Williamsburg  VA           1693 Anglican          Williamsburg,VA
##  3 Yale                     <NA>                  New Haven     CT           1701 Congregational    New Haven,CT
##  4 Pennsylvania, Univ. of   <NA>                  Philadelphia  PA           1740 Nondenominational Philadelphia,PA
##  5 Princeton                College of New Jersey Princeton     NJ           1746 Presbyterian      Princeton,NJ
##  6 Columbia                 King's College        New York      NY           1754 Anglican          New York,NY
##  7 Brown                    <NA>                  Providence    RI           1765 Baptist           Providence,RI
##  8 Rutgers                  Queen's College       New Brunswick  NJ           1766 Dutch Reformed    New Brunswick,NJ
##  9 Dartmouth                <NA>                  Hanover       NH           1769 Congregational    Hanover,NH
## 10 Charleston, Coll. Of     <NA>                  Charleston    SC           1770 Anglican          Charleston,SC
## # ... with 55 more rows
```

### arrange

La fonction `arrange()` permet de changer l'ordre des colonnes. Pour l'instant, les universités sont organisées par année de fondation en ordre croissant. Plaçons-les par ordre décroissant (descending en anglais). Dans notre cas, à partir de la fin de la guerre américano-mexicaine&nbsp;:

```
early_colleges%>%
  arrange(desc(established))

## # A tibble: 65 × 6
##    college                 original_name         city        state established sponsorship
##    <chr>                   <chr>                 <chr>       <chr>       <int> <chr>      
##  1 Wisconsin, Univ. of     <NA>                  Madison     WI           1848 Secular    
##  2 Earlham                 <NA>                  Richmond    IN           1847 Quaker     
##  3 Beloit                  <NA>                  Beloit      WI           1846 Congregational
##  4 Bucknell                <NA>                  Lewisburg   PA           1846 Baptist    
##  5 Grinnell                <NA>                  Grinnell    IA           1846 Congregational
##  6 Mount Union             <NA>                  Alliance    OH           1846 Methodist  
##  7 Louisiana, Univ. of     <NA>                  New Orleans LA           1845 Secular    
##  8 U.S. Naval Academy      <NA>                  Annapolis   MD           1845 Secular    
##  9 Mississipps, Univ. of   <NA>                  Oxford      MI           1844 Secular    
## 10 Holy Cross              <NA>                  Worchester  MA           1843 Roman Catholic
## # ... with 55 more rows
```
…
